first_name,last_name,user_name,user_email,phone_number,role,remoteId
Neil80,Yeldi80,neily80@gmail.com,neily80@gmail.com,8.88879E+11,"INDIVIDUAL,true:ADMIN,true",1.98457E+11
Neil81,Yeldi81,neily81@gmail.com,neily81@gmail.com,8.88879E+11,"INDIVIDUAL,true:ADMIN,true",1.98457E+11
Neil82,Yeldi82,neily82@gmail.com,neily82@gmail.com,8.88879E+11,"INDIVIDUAL,true:ADMIN,true",1.98457E+11
Neil83,Yeldi83,neily83@gmail.com,neily83@gmail.com,8.88879E+11,"INDIVIDUAL,true:ADMIN,true",1.98457E+11
Neil84,Yeldi84,neily84@gmail.com,neily84@gmail.com,8.88879E+11,"INDIVIDUAL,true:ADMIN,true",1.98457E+11
Neil85,Yeldi85,neily85@gmail.com,neily85@gmail.com,8.88879E+11,"INDIVIDUAL,true:ADMIN,true",1.98457E+11
Neil86,Yeldi86,neily86@gmail.com,neily86@gmail.com,8.88879E+11,"INDIVIDUAL,true:ADMIN,true",1.98457E+11
Neil87,Yeldi87,neily87@gmail.com,neily87@gmail.com,8.88879E+11,"INDIVIDUAL,true:ADMIN,true",1.98457E+11
Neil88,Yeldi88,neily88@gmail.com,neily88@gmail.com,8.88879E+11,"INDIVIDUAL,true:ADMIN,true",1.98457E+11
Neil89,Yeldi89,neily89@gmail.com,neily89@gmail.com,8.88879E+11,"INDIVIDUAL,true:ADMIN,true",1.98457E+11
Neil90,Yeldi90,neily90@gmail.com,neily90@gmail.com,8.88879E+11,"INDIVIDUAL,true:ADMIN,true",1.98457E+11
Neil91,Yeldi91,neily91@gmail.com,neily91@gmail.com,8.88879E+11,"INDIVIDUAL,true:ADMIN,true",1.98457E+11
Neil92,Yeldi92,neily92@gmail.com,neily92@gmail.com,8.88879E+11,"INDIVIDUAL,true:ADMIN,true",1.98457E+11
Neil93,Yeldi93,neily93@gmail.com,neily93@gmail.com,8.88879E+11,"INDIVIDUAL,true:ADMIN,true",1.98457E+11
Neil94,Yeldi94,neily94@gmail.com,neily94@gmail.com,8.88879E+11,"INDIVIDUAL,true:ADMIN,true",1.98457E+11
Neil95,Yeldi95,neily95@gmail.com,neily95@gmail.com,8.88879E+11,"INDIVIDUAL,true:ADMIN,true",1.98457E+11
Neil96,Yeldi96,neily96@gmail.com,neily96@gmail.com,8.88879E+11,"INDIVIDUAL,true:ADMIN,true",1.98457E+11
Neil97,Yeldi97,neily97@gmail.com,neily97@gmail.com,8.88879E+11,"INDIVIDUAL,true:ADMIN,true",1.98457E+11
Neil98,Yeldi98,neily98@gmail.com,neily98@gmail.com,8.88879E+11,"INDIVIDUAL,true:ADMIN,true",1.98457E+11
Neil99,Yeldi99,neily99@gmail.com,neily99@gmail.com,8.88879E+11,"INDIVIDUAL,true:ADMIN,true",1.98457E+11
Neil100,Yeldi100,neily100@gmail.com,neily100@gmail.com,8.88879E+12,"INDIVIDUAL,true:ADMIN,true",1.98457E+12
Neil101,Yeldi101,neily101@gmail.com,neily101@gmail.com,8.88879E+12,"INDIVIDUAL,true:ADMIN,true",1.98457E+12
