remoteId,status,exceptionType,errorMessage,fileName
19845679031,Failed,ServerError,"I/O error on POST request for https://localhost:8083/newUsersRegistration?restReqFileName=bulkuserdata_split_file_no_0.csv:Connect to localhost:8083 [localhost/127.0.0.1; localhost/0:0:0:0:0:0:0:1] failed: Connection refused: connect; nested exception is org.apache.http.conn.HttpHostConnectException: Connect to localhost:8083 [localhost/127.0.0.1; localhost/0:0:0:0:0:0:0:1] failed: Connection refused: connect",D:\VimoProjWS\GitWS\platform\bulkusersbatch\src\main\resources\csvFiles\csvsplitfiles\bulkuserdata_split_file_no_0.csv
19845679032,Failed,ServerError,"I/O error on POST request for https://localhost:8083/newUsersRegistration?restReqFileName=bulkuserdata_split_file_no_0.csv:Connect to localhost:8083 [localhost/127.0.0.1; localhost/0:0:0:0:0:0:0:1] failed: Connection refused: connect; nested exception is org.apache.http.conn.HttpHostConnectException: Connect to localhost:8083 [localhost/127.0.0.1; localhost/0:0:0:0:0:0:0:1] failed: Connection refused: connect",D:\VimoProjWS\GitWS\platform\bulkusersbatch\src\main\resources\csvFiles\csvsplitfiles\bulkuserdata_split_file_no_0.csv
19845679033,Failed,ServerError,"I/O error on POST request for https://localhost:8083/newUsersRegistration?restReqFileName=bulkuserdata_split_file_no_0.csv:Connect to localhost:8083 [localhost/127.0.0.1; localhost/0:0:0:0:0:0:0:1] failed: Connection refused: connect; nested exception is org.apache.http.conn.HttpHostConnectException: Connect to localhost:8083 [localhost/127.0.0.1; localhost/0:0:0:0:0:0:0:1] failed: Connection refused: connect",D:\VimoProjWS\GitWS\platform\bulkusersbatch\src\main\resources\csvFiles\csvsplitfiles\bulkuserdata_split_file_no_0.csv
19845679034,Failed,ServerError,"I/O error on POST request for https://localhost:8083/newUsersRegistration?restReqFileName=bulkuserdata_split_file_no_0.csv:Connect to localhost:8083 [localhost/127.0.0.1; localhost/0:0:0:0:0:0:0:1] failed: Connection refused: connect; nested exception is org.apache.http.conn.HttpHostConnectException: Connect to localhost:8083 [localhost/127.0.0.1; localhost/0:0:0:0:0:0:0:1] failed: Connection refused: connect",D:\VimoProjWS\GitWS\platform\bulkusersbatch\src\main\resources\csvFiles\csvsplitfiles\bulkuserdata_split_file_no_0.csv
19845679035,Failed,ServerError,"I/O error on POST request for https://localhost:8083/newUsersRegistration?restReqFileName=bulkuserdata_split_file_no_0.csv:Connect to localhost:8083 [localhost/127.0.0.1; localhost/0:0:0:0:0:0:0:1] failed: Connection refused: connect; nested exception is org.apache.http.conn.HttpHostConnectException: Connect to localhost:8083 [localhost/127.0.0.1; localhost/0:0:0:0:0:0:0:1] failed: Connection refused: connect",D:\VimoProjWS\GitWS\platform\bulkusersbatch\src\main\resources\csvFiles\csvsplitfiles\bulkuserdata_split_file_no_0.csv
19845679036,Failed,ServerError,"I/O error on POST request for https://localhost:8083/newUsersRegistration?restReqFileName=bulkuserdata_split_file_no_0.csv:Connect to localhost:8083 [localhost/127.0.0.1; localhost/0:0:0:0:0:0:0:1] failed: Connection refused: connect; nested exception is org.apache.http.conn.HttpHostConnectException: Connect to localhost:8083 [localhost/127.0.0.1; localhost/0:0:0:0:0:0:0:1] failed: Connection refused: connect",D:\VimoProjWS\GitWS\platform\bulkusersbatch\src\main\resources\csvFiles\csvsplitfiles\bulkuserdata_split_file_no_0.csv
19845679137,Failed,ServerError,"I/O error on POST request for https://localhost:8083/newUsersRegistration?restReqFileName=bulkuserdata_split_file_no_0.csv:Connect to localhost:8083 [localhost/127.0.0.1; localhost/0:0:0:0:0:0:0:1] failed: Connection refused: connect; nested exception is org.apache.http.conn.HttpHostConnectException: Connect to localhost:8083 [localhost/127.0.0.1; localhost/0:0:0:0:0:0:0:1] failed: Connection refused: connect",D:\VimoProjWS\GitWS\platform\bulkusersbatch\src\main\resources\csvFiles\csvsplitfiles\bulkuserdata_split_file_no_0.csv
19845679037,Failed,ServerError,"I/O error on POST request for https://localhost:8083/newUsersRegistration?restReqFileName=bulkuserdata_split_file_no_0.csv:Connect to localhost:8083 [localhost/127.0.0.1; localhost/0:0:0:0:0:0:0:1] failed: Connection refused: connect; nested exception is org.apache.http.conn.HttpHostConnectException: Connect to localhost:8083 [localhost/127.0.0.1; localhost/0:0:0:0:0:0:0:1] failed: Connection refused: connect",D:\VimoProjWS\GitWS\platform\bulkusersbatch\src\main\resources\csvFiles\csvsplitfiles\bulkuserdata_split_file_no_0.csv
19845679038,Failed,ServerError,"I/O error on POST request for https://localhost:8083/newUsersRegistration?restReqFileName=bulkuserdata_split_file_no_0.csv:Connect to localhost:8083 [localhost/127.0.0.1; localhost/0:0:0:0:0:0:0:1] failed: Connection refused: connect; nested exception is org.apache.http.conn.HttpHostConnectException: Connect to localhost:8083 [localhost/127.0.0.1; localhost/0:0:0:0:0:0:0:1] failed: Connection refused: connect",D:\VimoProjWS\GitWS\platform\bulkusersbatch\src\main\resources\csvFiles\csvsplitfiles\bulkuserdata_split_file_no_0.csv
19845679039,Failed,ServerError,"I/O error on POST request for https://localhost:8083/newUsersRegistration?restReqFileName=bulkuserdata_split_file_no_0.csv:Connect to localhost:8083 [localhost/127.0.0.1; localhost/0:0:0:0:0:0:0:1] failed: Connection refused: connect; nested exception is org.apache.http.conn.HttpHostConnectException: Connect to localhost:8083 [localhost/127.0.0.1; localhost/0:0:0:0:0:0:0:1] failed: Connection refused: connect",D:\VimoProjWS\GitWS\platform\bulkusersbatch\src\main\resources\csvFiles\csvsplitfiles\bulkuserdata_split_file_no_0.csv
1.98457E+11,Failed,ServerError,"I/O error on POST request for https://localhost:8083/newUsersRegistration?restReqFileName=bulkuserdata_split_file_no_0.csv:Connect to localhost:8083 [localhost/127.0.0.1; localhost/0:0:0:0:0:0:0:1] failed: Connection refused: connect; nested exception is org.apache.http.conn.HttpHostConnectException: Connect to localhost:8083 [localhost/127.0.0.1; localhost/0:0:0:0:0:0:0:1] failed: Connection refused: connect",D:\VimoProjWS\GitWS\platform\bulkusersbatch\src\main\resources\csvFiles\csvsplitfiles\bulkuserdata_split_file_no_0.csv
1.98457E+11,Failed,ServerError,"I/O error on POST request for https://localhost:8083/newUsersRegistration?restReqFileName=bulkuserdata_split_file_no_0.csv:Connect to localhost:8083 [localhost/127.0.0.1; localhost/0:0:0:0:0:0:0:1] failed: Connection refused: connect; nested exception is org.apache.http.conn.HttpHostConnectException: Connect to localhost:8083 [localhost/127.0.0.1; localhost/0:0:0:0:0:0:0:1] failed: Connection refused: connect",D:\VimoProjWS\GitWS\platform\bulkusersbatch\src\main\resources\csvFiles\csvsplitfiles\bulkuserdata_split_file_no_0.csv
1.98457E+11,Failed,ServerError,"I/O error on POST request for https://localhost:8083/newUsersRegistration?restReqFileName=bulkuserdata_split_file_no_0.csv:Connect to localhost:8083 [localhost/127.0.0.1; localhost/0:0:0:0:0:0:0:1] failed: Connection refused: connect; nested exception is org.apache.http.conn.HttpHostConnectException: Connect to localhost:8083 [localhost/127.0.0.1; localhost/0:0:0:0:0:0:0:1] failed: Connection refused: connect",D:\VimoProjWS\GitWS\platform\bulkusersbatch\src\main\resources\csvFiles\csvsplitfiles\bulkuserdata_split_file_no_0.csv
1.98457E+11,Failed,ServerError,"I/O error on POST request for https://localhost:8083/newUsersRegistration?restReqFileName=bulkuserdata_split_file_no_0.csv:Connect to localhost:8083 [localhost/127.0.0.1; localhost/0:0:0:0:0:0:0:1] failed: Connection refused: connect; nested exception is org.apache.http.conn.HttpHostConnectException: Connect to localhost:8083 [localhost/127.0.0.1; localhost/0:0:0:0:0:0:0:1] failed: Connection refused: connect",D:\VimoProjWS\GitWS\platform\bulkusersbatch\src\main\resources\csvFiles\csvsplitfiles\bulkuserdata_split_file_no_0.csv
1.98457E+11,Failed,ServerError,"I/O error on POST request for https://localhost:8083/newUsersRegistration?restReqFileName=bulkuserdata_split_file_no_0.csv:Connect to localhost:8083 [localhost/127.0.0.1; localhost/0:0:0:0:0:0:0:1] failed: Connection refused: connect; nested exception is org.apache.http.conn.HttpHostConnectException: Connect to localhost:8083 [localhost/127.0.0.1; localhost/0:0:0:0:0:0:0:1] failed: Connection refused: connect",D:\VimoProjWS\GitWS\platform\bulkusersbatch\src\main\resources\csvFiles\csvsplitfiles\bulkuserdata_split_file_no_0.csv
1.98457E+11,Failed,ServerError,"I/O error on POST request for https://localhost:8083/newUsersRegistration?restReqFileName=bulkuserdata_split_file_no_0.csv:Connect to localhost:8083 [localhost/127.0.0.1; localhost/0:0:0:0:0:0:0:1] failed: Connection refused: connect; nested exception is org.apache.http.conn.HttpHostConnectException: Connect to localhost:8083 [localhost/127.0.0.1; localhost/0:0:0:0:0:0:0:1] failed: Connection refused: connect",D:\VimoProjWS\GitWS\platform\bulkusersbatch\src\main\resources\csvFiles\csvsplitfiles\bulkuserdata_split_file_no_0.csv
1.98457E+11,Failed,ServerError,"I/O error on POST request for https://localhost:8083/newUsersRegistration?restReqFileName=bulkuserdata_split_file_no_0.csv:Connect to localhost:8083 [localhost/127.0.0.1; localhost/0:0:0:0:0:0:0:1] failed: Connection refused: connect; nested exception is org.apache.http.conn.HttpHostConnectException: Connect to localhost:8083 [localhost/127.0.0.1; localhost/0:0:0:0:0:0:0:1] failed: Connection refused: connect",D:\VimoProjWS\GitWS\platform\bulkusersbatch\src\main\resources\csvFiles\csvsplitfiles\bulkuserdata_split_file_no_0.csv
1.98457E+11,Failed,ServerError,"I/O error on POST request for https://localhost:8083/newUsersRegistration?restReqFileName=bulkuserdata_split_file_no_0.csv:Connect to localhost:8083 [localhost/127.0.0.1; localhost/0:0:0:0:0:0:0:1] failed: Connection refused: connect; nested exception is org.apache.http.conn.HttpHostConnectException: Connect to localhost:8083 [localhost/127.0.0.1; localhost/0:0:0:0:0:0:0:1] failed: Connection refused: connect",D:\VimoProjWS\GitWS\platform\bulkusersbatch\src\main\resources\csvFiles\csvsplitfiles\bulkuserdata_split_file_no_0.csv
1.98457E+11,Failed,ServerError,"I/O error on POST request for https://localhost:8083/newUsersRegistration?restReqFileName=bulkuserdata_split_file_no_0.csv:Connect to localhost:8083 [localhost/127.0.0.1; localhost/0:0:0:0:0:0:0:1] failed: Connection refused: connect; nested exception is org.apache.http.conn.HttpHostConnectException: Connect to localhost:8083 [localhost/127.0.0.1; localhost/0:0:0:0:0:0:0:1] failed: Connection refused: connect",D:\VimoProjWS\GitWS\platform\bulkusersbatch\src\main\resources\csvFiles\csvsplitfiles\bulkuserdata_split_file_no_0.csv
1.98457E+11,Failed,ServerError,"I/O error on POST request for https://localhost:8083/newUsersRegistration?restReqFileName=bulkuserdata_split_file_no_0.csv:Connect to localhost:8083 [localhost/127.0.0.1; localhost/0:0:0:0:0:0:0:1] failed: Connection refused: connect; nested exception is org.apache.http.conn.HttpHostConnectException: Connect to localhost:8083 [localhost/127.0.0.1; localhost/0:0:0:0:0:0:0:1] failed: Connection refused: connect",D:\VimoProjWS\GitWS\platform\bulkusersbatch\src\main\resources\csvFiles\csvsplitfiles\bulkuserdata_split_file_no_0.csv
1.98457E+11,Failed,ServerError,"I/O error on POST request for https://localhost:8083/newUsersRegistration?restReqFileName=bulkuserdata_split_file_no_0.csv:Connect to localhost:8083 [localhost/127.0.0.1; localhost/0:0:0:0:0:0:0:1] failed: Connection refused: connect; nested exception is org.apache.http.conn.HttpHostConnectException: Connect to localhost:8083 [localhost/127.0.0.1; localhost/0:0:0:0:0:0:0:1] failed: Connection refused: connect",D:\VimoProjWS\GitWS\platform\bulkusersbatch\src\main\resources\csvFiles\csvsplitfiles\bulkuserdata_split_file_no_0.csv
1.98457E+11,Failed,ServerError,"I/O error on POST request for https://localhost:8083/newUsersRegistration?restReqFileName=bulkuserdata_split_file_no_0.csv:Connect to localhost:8083 [localhost/127.0.0.1; localhost/0:0:0:0:0:0:0:1] failed: Connection refused: connect; nested exception is org.apache.http.conn.HttpHostConnectException: Connect to localhost:8083 [localhost/127.0.0.1; localhost/0:0:0:0:0:0:0:1] failed: Connection refused: connect",D:\VimoProjWS\GitWS\platform\bulkusersbatch\src\main\resources\csvFiles\csvsplitfiles\bulkuserdata_split_file_no_0.csv
1.98457E+11,Failed,ServerError,"I/O error on POST request for https://localhost:8083/newUsersRegistration?restReqFileName=bulkuserdata_split_file_no_0.csv:Connect to localhost:8083 [localhost/127.0.0.1; localhost/0:0:0:0:0:0:0:1] failed: Connection refused: connect; nested exception is org.apache.http.conn.HttpHostConnectException: Connect to localhost:8083 [localhost/127.0.0.1; localhost/0:0:0:0:0:0:0:1] failed: Connection refused: connect",D:\VimoProjWS\GitWS\platform\bulkusersbatch\src\main\resources\csvFiles\csvsplitfiles\bulkuserdata_split_file_no_0.csv
1.98457E+11,Failed,ServerError,"I/O error on POST request for https://localhost:8083/newUsersRegistration?restReqFileName=bulkuserdata_split_file_no_0.csv:Connect to localhost:8083 [localhost/127.0.0.1; localhost/0:0:0:0:0:0:0:1] failed: Connection refused: connect; nested exception is org.apache.http.conn.HttpHostConnectException: Connect to localhost:8083 [localhost/127.0.0.1; localhost/0:0:0:0:0:0:0:1] failed: Connection refused: connect",D:\VimoProjWS\GitWS\platform\bulkusersbatch\src\main\resources\csvFiles\csvsplitfiles\bulkuserdata_split_file_no_0.csv
1.98457E+11,Failed,ServerError,"I/O error on POST request for https://localhost:8083/newUsersRegistration?restReqFileName=bulkuserdata_split_file_no_0.csv:Connect to localhost:8083 [localhost/127.0.0.1; localhost/0:0:0:0:0:0:0:1] failed: Connection refused: connect; nested exception is org.apache.http.conn.HttpHostConnectException: Connect to localhost:8083 [localhost/127.0.0.1; localhost/0:0:0:0:0:0:0:1] failed: Connection refused: connect",D:\VimoProjWS\GitWS\platform\bulkusersbatch\src\main\resources\csvFiles\csvsplitfiles\bulkuserdata_split_file_no_0.csv
1.98457E+11,Failed,ServerError,"I/O error on POST request for https://localhost:8083/newUsersRegistration?restReqFileName=bulkuserdata_split_file_no_0.csv:Connect to localhost:8083 [localhost/127.0.0.1; localhost/0:0:0:0:0:0:0:1] failed: Connection refused: connect; nested exception is org.apache.http.conn.HttpHostConnectException: Connect to localhost:8083 [localhost/127.0.0.1; localhost/0:0:0:0:0:0:0:1] failed: Connection refused: connect",D:\VimoProjWS\GitWS\platform\bulkusersbatch\src\main\resources\csvFiles\csvsplitfiles\bulkuserdata_split_file_no_0.csv
1.98457E+11,Failed,ServerError,"I/O error on POST request for https://localhost:8083/newUsersRegistration?restReqFileName=bulkuserdata_split_file_no_0.csv:Connect to localhost:8083 [localhost/127.0.0.1; localhost/0:0:0:0:0:0:0:1] failed: Connection refused: connect; nested exception is org.apache.http.conn.HttpHostConnectException: Connect to localhost:8083 [localhost/127.0.0.1; localhost/0:0:0:0:0:0:0:1] failed: Connection refused: connect",D:\VimoProjWS\GitWS\platform\bulkusersbatch\src\main\resources\csvFiles\csvsplitfiles\bulkuserdata_split_file_no_0.csv
1.98457E+11,Failed,ServerError,"I/O error on POST request for https://localhost:8083/newUsersRegistration?restReqFileName=bulkuserdata_split_file_no_0.csv:Connect to localhost:8083 [localhost/127.0.0.1; localhost/0:0:0:0:0:0:0:1] failed: Connection refused: connect; nested exception is org.apache.http.conn.HttpHostConnectException: Connect to localhost:8083 [localhost/127.0.0.1; localhost/0:0:0:0:0:0:0:1] failed: Connection refused: connect",D:\VimoProjWS\GitWS\platform\bulkusersbatch\src\main\resources\csvFiles\csvsplitfiles\bulkuserdata_split_file_no_0.csv
1.98457E+11,Failed,ServerError,"I/O error on POST request for https://localhost:8083/newUsersRegistration?restReqFileName=bulkuserdata_split_file_no_0.csv:Connect to localhost:8083 [localhost/127.0.0.1; localhost/0:0:0:0:0:0:0:1] failed: Connection refused: connect; nested exception is org.apache.http.conn.HttpHostConnectException: Connect to localhost:8083 [localhost/127.0.0.1; localhost/0:0:0:0:0:0:0:1] failed: Connection refused: connect",D:\VimoProjWS\GitWS\platform\bulkusersbatch\src\main\resources\csvFiles\csvsplitfiles\bulkuserdata_split_file_no_0.csv
1.98457E+11,Failed,ServerError,"I/O error on POST request for https://localhost:8083/newUsersRegistration?restReqFileName=bulkuserdata_split_file_no_0.csv:Connect to localhost:8083 [localhost/127.0.0.1; localhost/0:0:0:0:0:0:0:1] failed: Connection refused: connect; nested exception is org.apache.http.conn.HttpHostConnectException: Connect to localhost:8083 [localhost/127.0.0.1; localhost/0:0:0:0:0:0:0:1] failed: Connection refused: connect",D:\VimoProjWS\GitWS\platform\bulkusersbatch\src\main\resources\csvFiles\csvsplitfiles\bulkuserdata_split_file_no_0.csv
1.98457E+11,Failed,ServerError,"I/O error on POST request for https://localhost:8083/newUsersRegistration?restReqFileName=bulkuserdata_split_file_no_0.csv:Connect to localhost:8083 [localhost/127.0.0.1; localhost/0:0:0:0:0:0:0:1] failed: Connection refused: connect; nested exception is org.apache.http.conn.HttpHostConnectException: Connect to localhost:8083 [localhost/127.0.0.1; localhost/0:0:0:0:0:0:0:1] failed: Connection refused: connect",D:\VimoProjWS\GitWS\platform\bulkusersbatch\src\main\resources\csvFiles\csvsplitfiles\bulkuserdata_split_file_no_0.csv
1.98457E+11,Failed,ServerError,"I/O error on POST request for https://localhost:8083/newUsersRegistration?restReqFileName=bulkuserdata_split_file_no_0.csv:Connect to localhost:8083 [localhost/127.0.0.1; localhost/0:0:0:0:0:0:0:1] failed: Connection refused: connect; nested exception is org.apache.http.conn.HttpHostConnectException: Connect to localhost:8083 [localhost/127.0.0.1; localhost/0:0:0:0:0:0:0:1] failed: Connection refused: connect",D:\VimoProjWS\GitWS\platform\bulkusersbatch\src\main\resources\csvFiles\csvsplitfiles\bulkuserdata_split_file_no_0.csv
1.98457E+11,Failed,ServerError,"I/O error on POST request for https://localhost:8083/newUsersRegistration?restReqFileName=bulkuserdata_split_file_no_0.csv:Connect to localhost:8083 [localhost/127.0.0.1; localhost/0:0:0:0:0:0:0:1] failed: Connection refused: connect; nested exception is org.apache.http.conn.HttpHostConnectException: Connect to localhost:8083 [localhost/127.0.0.1; localhost/0:0:0:0:0:0:0:1] failed: Connection refused: connect",D:\VimoProjWS\GitWS\platform\bulkusersbatch\src\main\resources\csvFiles\csvsplitfiles\bulkuserdata_split_file_no_0.csv
1.98457E+11,Failed,ServerError,"I/O error on POST request for https://localhost:8083/newUsersRegistration?restReqFileName=bulkuserdata_split_file_no_0.csv:Connect to localhost:8083 [localhost/127.0.0.1; localhost/0:0:0:0:0:0:0:1] failed: Connection refused: connect; nested exception is org.apache.http.conn.HttpHostConnectException: Connect to localhost:8083 [localhost/127.0.0.1; localhost/0:0:0:0:0:0:0:1] failed: Connection refused: connect",D:\VimoProjWS\GitWS\platform\bulkusersbatch\src\main\resources\csvFiles\csvsplitfiles\bulkuserdata_split_file_no_0.csv
1.98457E+11,Failed,ServerError,"I/O error on POST request for https://localhost:8083/newUsersRegistration?restReqFileName=bulkuserdata_split_file_no_0.csv:Connect to localhost:8083 [localhost/127.0.0.1; localhost/0:0:0:0:0:0:0:1] failed: Connection refused: connect; nested exception is org.apache.http.conn.HttpHostConnectException: Connect to localhost:8083 [localhost/127.0.0.1; localhost/0:0:0:0:0:0:0:1] failed: Connection refused: connect",D:\VimoProjWS\GitWS\platform\bulkusersbatch\src\main\resources\csvFiles\csvsplitfiles\bulkuserdata_split_file_no_0.csv
1.98457E+11,Failed,ServerError,"I/O error on POST request for https://localhost:8083/newUsersRegistration?restReqFileName=bulkuserdata_split_file_no_0.csv:Connect to localhost:8083 [localhost/127.0.0.1; localhost/0:0:0:0:0:0:0:1] failed: Connection refused: connect; nested exception is org.apache.http.conn.HttpHostConnectException: Connect to localhost:8083 [localhost/127.0.0.1; localhost/0:0:0:0:0:0:0:1] failed: Connection refused: connect",D:\VimoProjWS\GitWS\platform\bulkusersbatch\src\main\resources\csvFiles\csvsplitfiles\bulkuserdata_split_file_no_0.csv
1.98457E+11,Failed,ServerError,"I/O error on POST request for https://localhost:8083/newUsersRegistration?restReqFileName=bulkuserdata_split_file_no_0.csv:Connect to localhost:8083 [localhost/127.0.0.1; localhost/0:0:0:0:0:0:0:1] failed: Connection refused: connect; nested exception is org.apache.http.conn.HttpHostConnectException: Connect to localhost:8083 [localhost/127.0.0.1; localhost/0:0:0:0:0:0:0:1] failed: Connection refused: connect",D:\VimoProjWS\GitWS\platform\bulkusersbatch\src\main\resources\csvFiles\csvsplitfiles\bulkuserdata_split_file_no_0.csv
1.98457E+11,Failed,ServerError,"I/O error on POST request for https://localhost:8083/newUsersRegistration?restReqFileName=bulkuserdata_split_file_no_0.csv:Connect to localhost:8083 [localhost/127.0.0.1; localhost/0:0:0:0:0:0:0:1] failed: Connection refused: connect; nested exception is org.apache.http.conn.HttpHostConnectException: Connect to localhost:8083 [localhost/127.0.0.1; localhost/0:0:0:0:0:0:0:1] failed: Connection refused: connect",D:\VimoProjWS\GitWS\platform\bulkusersbatch\src\main\resources\csvFiles\csvsplitfiles\bulkuserdata_split_file_no_0.csv
1.98457E+11,Failed,ServerError,"I/O error on POST request for https://localhost:8083/newUsersRegistration?restReqFileName=bulkuserdata_split_file_no_0.csv:Connect to localhost:8083 [localhost/127.0.0.1; localhost/0:0:0:0:0:0:0:1] failed: Connection refused: connect; nested exception is org.apache.http.conn.HttpHostConnectException: Connect to localhost:8083 [localhost/127.0.0.1; localhost/0:0:0:0:0:0:0:1] failed: Connection refused: connect",D:\VimoProjWS\GitWS\platform\bulkusersbatch\src\main\resources\csvFiles\csvsplitfiles\bulkuserdata_split_file_no_0.csv
1.98457E+11,Failed,ServerError,"I/O error on POST request for https://localhost:8083/newUsersRegistration?restReqFileName=bulkuserdata_split_file_no_0.csv:Connect to localhost:8083 [localhost/127.0.0.1; localhost/0:0:0:0:0:0:0:1] failed: Connection refused: connect; nested exception is org.apache.http.conn.HttpHostConnectException: Connect to localhost:8083 [localhost/127.0.0.1; localhost/0:0:0:0:0:0:0:1] failed: Connection refused: connect",D:\VimoProjWS\GitWS\platform\bulkusersbatch\src\main\resources\csvFiles\csvsplitfiles\bulkuserdata_split_file_no_0.csv
1.98457E+11,Failed,ServerError,"I/O error on POST request for https://localhost:8083/newUsersRegistration?restReqFileName=bulkuserdata_split_file_no_1.csv:Connect to localhost:8083 [localhost/127.0.0.1; localhost/0:0:0:0:0:0:0:1] failed: Connection refused: connect; nested exception is org.apache.http.conn.HttpHostConnectException: Connect to localhost:8083 [localhost/127.0.0.1; localhost/0:0:0:0:0:0:0:1] failed: Connection refused: connect",D:\VimoProjWS\GitWS\platform\bulkusersbatch\src\main\resources\csvFiles\csvsplitfiles\bulkuserdata_split_file_no_1.csv
1.98457E+11,Failed,ServerError,"I/O error on POST request for https://localhost:8083/newUsersRegistration?restReqFileName=bulkuserdata_split_file_no_1.csv:Connect to localhost:8083 [localhost/127.0.0.1; localhost/0:0:0:0:0:0:0:1] failed: Connection refused: connect; nested exception is org.apache.http.conn.HttpHostConnectException: Connect to localhost:8083 [localhost/127.0.0.1; localhost/0:0:0:0:0:0:0:1] failed: Connection refused: connect",D:\VimoProjWS\GitWS\platform\bulkusersbatch\src\main\resources\csvFiles\csvsplitfiles\bulkuserdata_split_file_no_1.csv
1.98457E+11,Failed,ServerError,"I/O error on POST request for https://localhost:8083/newUsersRegistration?restReqFileName=bulkuserdata_split_file_no_1.csv:Connect to localhost:8083 [localhost/127.0.0.1; localhost/0:0:0:0:0:0:0:1] failed: Connection refused: connect; nested exception is org.apache.http.conn.HttpHostConnectException: Connect to localhost:8083 [localhost/127.0.0.1; localhost/0:0:0:0:0:0:0:1] failed: Connection refused: connect",D:\VimoProjWS\GitWS\platform\bulkusersbatch\src\main\resources\csvFiles\csvsplitfiles\bulkuserdata_split_file_no_1.csv
1.98457E+11,Failed,ServerError,"I/O error on POST request for https://localhost:8083/newUsersRegistration?restReqFileName=bulkuserdata_split_file_no_1.csv:Connect to localhost:8083 [localhost/127.0.0.1; localhost/0:0:0:0:0:0:0:1] failed: Connection refused: connect; nested exception is org.apache.http.conn.HttpHostConnectException: Connect to localhost:8083 [localhost/127.0.0.1; localhost/0:0:0:0:0:0:0:1] failed: Connection refused: connect",D:\VimoProjWS\GitWS\platform\bulkusersbatch\src\main\resources\csvFiles\csvsplitfiles\bulkuserdata_split_file_no_1.csv
1.98457E+11,Failed,ServerError,"I/O error on POST request for https://localhost:8083/newUsersRegistration?restReqFileName=bulkuserdata_split_file_no_1.csv:Connect to localhost:8083 [localhost/127.0.0.1; localhost/0:0:0:0:0:0:0:1] failed: Connection refused: connect; nested exception is org.apache.http.conn.HttpHostConnectException: Connect to localhost:8083 [localhost/127.0.0.1; localhost/0:0:0:0:0:0:0:1] failed: Connection refused: connect",D:\VimoProjWS\GitWS\platform\bulkusersbatch\src\main\resources\csvFiles\csvsplitfiles\bulkuserdata_split_file_no_1.csv
1.98457E+11,Failed,ServerError,"I/O error on POST request for https://localhost:8083/newUsersRegistration?restReqFileName=bulkuserdata_split_file_no_1.csv:Connect to localhost:8083 [localhost/127.0.0.1; localhost/0:0:0:0:0:0:0:1] failed: Connection refused: connect; nested exception is org.apache.http.conn.HttpHostConnectException: Connect to localhost:8083 [localhost/127.0.0.1; localhost/0:0:0:0:0:0:0:1] failed: Connection refused: connect",D:\VimoProjWS\GitWS\platform\bulkusersbatch\src\main\resources\csvFiles\csvsplitfiles\bulkuserdata_split_file_no_1.csv
1.98457E+11,Failed,ServerError,"I/O error on POST request for https://localhost:8083/newUsersRegistration?restReqFileName=bulkuserdata_split_file_no_1.csv:Connect to localhost:8083 [localhost/127.0.0.1; localhost/0:0:0:0:0:0:0:1] failed: Connection refused: connect; nested exception is org.apache.http.conn.HttpHostConnectException: Connect to localhost:8083 [localhost/127.0.0.1; localhost/0:0:0:0:0:0:0:1] failed: Connection refused: connect",D:\VimoProjWS\GitWS\platform\bulkusersbatch\src\main\resources\csvFiles\csvsplitfiles\bulkuserdata_split_file_no_1.csv
1.98457E+11,Failed,ServerError,"I/O error on POST request for https://localhost:8083/newUsersRegistration?restReqFileName=bulkuserdata_split_file_no_1.csv:Connect to localhost:8083 [localhost/127.0.0.1; localhost/0:0:0:0:0:0:0:1] failed: Connection refused: connect; nested exception is org.apache.http.conn.HttpHostConnectException: Connect to localhost:8083 [localhost/127.0.0.1; localhost/0:0:0:0:0:0:0:1] failed: Connection refused: connect",D:\VimoProjWS\GitWS\platform\bulkusersbatch\src\main\resources\csvFiles\csvsplitfiles\bulkuserdata_split_file_no_1.csv
1.98457E+11,Failed,ServerError,"I/O error on POST request for https://localhost:8083/newUsersRegistration?restReqFileName=bulkuserdata_split_file_no_1.csv:Connect to localhost:8083 [localhost/127.0.0.1; localhost/0:0:0:0:0:0:0:1] failed: Connection refused: connect; nested exception is org.apache.http.conn.HttpHostConnectException: Connect to localhost:8083 [localhost/127.0.0.1; localhost/0:0:0:0:0:0:0:1] failed: Connection refused: connect",D:\VimoProjWS\GitWS\platform\bulkusersbatch\src\main\resources\csvFiles\csvsplitfiles\bulkuserdata_split_file_no_1.csv
1.98457E+11,Failed,ServerError,"I/O error on POST request for https://localhost:8083/newUsersRegistration?restReqFileName=bulkuserdata_split_file_no_1.csv:Connect to localhost:8083 [localhost/127.0.0.1; localhost/0:0:0:0:0:0:0:1] failed: Connection refused: connect; nested exception is org.apache.http.conn.HttpHostConnectException: Connect to localhost:8083 [localhost/127.0.0.1; localhost/0:0:0:0:0:0:0:1] failed: Connection refused: connect",D:\VimoProjWS\GitWS\platform\bulkusersbatch\src\main\resources\csvFiles\csvsplitfiles\bulkuserdata_split_file_no_1.csv
1.98457E+11,Failed,ServerError,"I/O error on POST request for https://localhost:8083/newUsersRegistration?restReqFileName=bulkuserdata_split_file_no_1.csv:Connect to localhost:8083 [localhost/127.0.0.1; localhost/0:0:0:0:0:0:0:1] failed: Connection refused: connect; nested exception is org.apache.http.conn.HttpHostConnectException: Connect to localhost:8083 [localhost/127.0.0.1; localhost/0:0:0:0:0:0:0:1] failed: Connection refused: connect",D:\VimoProjWS\GitWS\platform\bulkusersbatch\src\main\resources\csvFiles\csvsplitfiles\bulkuserdata_split_file_no_1.csv
1.98457E+11,Failed,ServerError,"I/O error on POST request for https://localhost:8083/newUsersRegistration?restReqFileName=bulkuserdata_split_file_no_1.csv:Connect to localhost:8083 [localhost/127.0.0.1; localhost/0:0:0:0:0:0:0:1] failed: Connection refused: connect; nested exception is org.apache.http.conn.HttpHostConnectException: Connect to localhost:8083 [localhost/127.0.0.1; localhost/0:0:0:0:0:0:0:1] failed: Connection refused: connect",D:\VimoProjWS\GitWS\platform\bulkusersbatch\src\main\resources\csvFiles\csvsplitfiles\bulkuserdata_split_file_no_1.csv
1.98457E+11,Failed,ServerError,"I/O error on POST request for https://localhost:8083/newUsersRegistration?restReqFileName=bulkuserdata_split_file_no_1.csv:Connect to localhost:8083 [localhost/127.0.0.1; localhost/0:0:0:0:0:0:0:1] failed: Connection refused: connect; nested exception is org.apache.http.conn.HttpHostConnectException: Connect to localhost:8083 [localhost/127.0.0.1; localhost/0:0:0:0:0:0:0:1] failed: Connection refused: connect",D:\VimoProjWS\GitWS\platform\bulkusersbatch\src\main\resources\csvFiles\csvsplitfiles\bulkuserdata_split_file_no_1.csv
1.98457E+11,Failed,ServerError,"I/O error on POST request for https://localhost:8083/newUsersRegistration?restReqFileName=bulkuserdata_split_file_no_1.csv:Connect to localhost:8083 [localhost/127.0.0.1; localhost/0:0:0:0:0:0:0:1] failed: Connection refused: connect; nested exception is org.apache.http.conn.HttpHostConnectException: Connect to localhost:8083 [localhost/127.0.0.1; localhost/0:0:0:0:0:0:0:1] failed: Connection refused: connect",D:\VimoProjWS\GitWS\platform\bulkusersbatch\src\main\resources\csvFiles\csvsplitfiles\bulkuserdata_split_file_no_1.csv
1.98457E+11,Failed,ServerError,"I/O error on POST request for https://localhost:8083/newUsersRegistration?restReqFileName=bulkuserdata_split_file_no_1.csv:Connect to localhost:8083 [localhost/127.0.0.1; localhost/0:0:0:0:0:0:0:1] failed: Connection refused: connect; nested exception is org.apache.http.conn.HttpHostConnectException: Connect to localhost:8083 [localhost/127.0.0.1; localhost/0:0:0:0:0:0:0:1] failed: Connection refused: connect",D:\VimoProjWS\GitWS\platform\bulkusersbatch\src\main\resources\csvFiles\csvsplitfiles\bulkuserdata_split_file_no_1.csv
1.98457E+11,Failed,ServerError,"I/O error on POST request for https://localhost:8083/newUsersRegistration?restReqFileName=bulkuserdata_split_file_no_1.csv:Connect to localhost:8083 [localhost/127.0.0.1; localhost/0:0:0:0:0:0:0:1] failed: Connection refused: connect; nested exception is org.apache.http.conn.HttpHostConnectException: Connect to localhost:8083 [localhost/127.0.0.1; localhost/0:0:0:0:0:0:0:1] failed: Connection refused: connect",D:\VimoProjWS\GitWS\platform\bulkusersbatch\src\main\resources\csvFiles\csvsplitfiles\bulkuserdata_split_file_no_1.csv
1.98457E+11,Failed,ServerError,"I/O error on POST request for https://localhost:8083/newUsersRegistration?restReqFileName=bulkuserdata_split_file_no_1.csv:Connect to localhost:8083 [localhost/127.0.0.1; localhost/0:0:0:0:0:0:0:1] failed: Connection refused: connect; nested exception is org.apache.http.conn.HttpHostConnectException: Connect to localhost:8083 [localhost/127.0.0.1; localhost/0:0:0:0:0:0:0:1] failed: Connection refused: connect",D:\VimoProjWS\GitWS\platform\bulkusersbatch\src\main\resources\csvFiles\csvsplitfiles\bulkuserdata_split_file_no_1.csv
1.98457E+11,Failed,ServerError,"I/O error on POST request for https://localhost:8083/newUsersRegistration?restReqFileName=bulkuserdata_split_file_no_1.csv:Connect to localhost:8083 [localhost/127.0.0.1; localhost/0:0:0:0:0:0:0:1] failed: Connection refused: connect; nested exception is org.apache.http.conn.HttpHostConnectException: Connect to localhost:8083 [localhost/127.0.0.1; localhost/0:0:0:0:0:0:0:1] failed: Connection refused: connect",D:\VimoProjWS\GitWS\platform\bulkusersbatch\src\main\resources\csvFiles\csvsplitfiles\bulkuserdata_split_file_no_1.csv
1.98457E+11,Failed,ServerError,"I/O error on POST request for https://localhost:8083/newUsersRegistration?restReqFileName=bulkuserdata_split_file_no_1.csv:Connect to localhost:8083 [localhost/127.0.0.1; localhost/0:0:0:0:0:0:0:1] failed: Connection refused: connect; nested exception is org.apache.http.conn.HttpHostConnectException: Connect to localhost:8083 [localhost/127.0.0.1; localhost/0:0:0:0:0:0:0:1] failed: Connection refused: connect",D:\VimoProjWS\GitWS\platform\bulkusersbatch\src\main\resources\csvFiles\csvsplitfiles\bulkuserdata_split_file_no_1.csv
1.98457E+11,Failed,ServerError,"I/O error on POST request for https://localhost:8083/newUsersRegistration?restReqFileName=bulkuserdata_split_file_no_1.csv:Connect to localhost:8083 [localhost/127.0.0.1; localhost/0:0:0:0:0:0:0:1] failed: Connection refused: connect; nested exception is org.apache.http.conn.HttpHostConnectException: Connect to localhost:8083 [localhost/127.0.0.1; localhost/0:0:0:0:0:0:0:1] failed: Connection refused: connect",D:\VimoProjWS\GitWS\platform\bulkusersbatch\src\main\resources\csvFiles\csvsplitfiles\bulkuserdata_split_file_no_1.csv
1.98457E+11,Failed,ServerError,"I/O error on POST request for https://localhost:8083/newUsersRegistration?restReqFileName=bulkuserdata_split_file_no_1.csv:Connect to localhost:8083 [localhost/127.0.0.1; localhost/0:0:0:0:0:0:0:1] failed: Connection refused: connect; nested exception is org.apache.http.conn.HttpHostConnectException: Connect to localhost:8083 [localhost/127.0.0.1; localhost/0:0:0:0:0:0:0:1] failed: Connection refused: connect",D:\VimoProjWS\GitWS\platform\bulkusersbatch\src\main\resources\csvFiles\csvsplitfiles\bulkuserdata_split_file_no_1.csv
1.98457E+11,Failed,ServerError,"I/O error on POST request for https://localhost:8083/newUsersRegistration?restReqFileName=bulkuserdata_split_file_no_1.csv:Connect to localhost:8083 [localhost/127.0.0.1; localhost/0:0:0:0:0:0:0:1] failed: Connection refused: connect; nested exception is org.apache.http.conn.HttpHostConnectException: Connect to localhost:8083 [localhost/127.0.0.1; localhost/0:0:0:0:0:0:0:1] failed: Connection refused: connect",D:\VimoProjWS\GitWS\platform\bulkusersbatch\src\main\resources\csvFiles\csvsplitfiles\bulkuserdata_split_file_no_1.csv
1.98457E+11,Failed,ServerError,"I/O error on POST request for https://localhost:8083/newUsersRegistration?restReqFileName=bulkuserdata_split_file_no_1.csv:Connect to localhost:8083 [localhost/127.0.0.1; localhost/0:0:0:0:0:0:0:1] failed: Connection refused: connect; nested exception is org.apache.http.conn.HttpHostConnectException: Connect to localhost:8083 [localhost/127.0.0.1; localhost/0:0:0:0:0:0:0:1] failed: Connection refused: connect",D:\VimoProjWS\GitWS\platform\bulkusersbatch\src\main\resources\csvFiles\csvsplitfiles\bulkuserdata_split_file_no_1.csv
1.98457E+11,Failed,ServerError,"I/O error on POST request for https://localhost:8083/newUsersRegistration?restReqFileName=bulkuserdata_split_file_no_1.csv:Connect to localhost:8083 [localhost/127.0.0.1; localhost/0:0:0:0:0:0:0:1] failed: Connection refused: connect; nested exception is org.apache.http.conn.HttpHostConnectException: Connect to localhost:8083 [localhost/127.0.0.1; localhost/0:0:0:0:0:0:0:1] failed: Connection refused: connect",D:\VimoProjWS\GitWS\platform\bulkusersbatch\src\main\resources\csvFiles\csvsplitfiles\bulkuserdata_split_file_no_1.csv
1.98457E+11,Failed,ServerError,"I/O error on POST request for https://localhost:8083/newUsersRegistration?restReqFileName=bulkuserdata_split_file_no_1.csv:Connect to localhost:8083 [localhost/127.0.0.1; localhost/0:0:0:0:0:0:0:1] failed: Connection refused: connect; nested exception is org.apache.http.conn.HttpHostConnectException: Connect to localhost:8083 [localhost/127.0.0.1; localhost/0:0:0:0:0:0:0:1] failed: Connection refused: connect",D:\VimoProjWS\GitWS\platform\bulkusersbatch\src\main\resources\csvFiles\csvsplitfiles\bulkuserdata_split_file_no_1.csv
1.98457E+11,Failed,ServerError,"I/O error on POST request for https://localhost:8083/newUsersRegistration?restReqFileName=bulkuserdata_split_file_no_1.csv:Connect to localhost:8083 [localhost/127.0.0.1; localhost/0:0:0:0:0:0:0:1] failed: Connection refused: connect; nested exception is org.apache.http.conn.HttpHostConnectException: Connect to localhost:8083 [localhost/127.0.0.1; localhost/0:0:0:0:0:0:0:1] failed: Connection refused: connect",D:\VimoProjWS\GitWS\platform\bulkusersbatch\src\main\resources\csvFiles\csvsplitfiles\bulkuserdata_split_file_no_1.csv
1.98457E+11,Failed,ServerError,"I/O error on POST request for https://localhost:8083/newUsersRegistration?restReqFileName=bulkuserdata_split_file_no_1.csv:Connect to localhost:8083 [localhost/127.0.0.1; localhost/0:0:0:0:0:0:0:1] failed: Connection refused: connect; nested exception is org.apache.http.conn.HttpHostConnectException: Connect to localhost:8083 [localhost/127.0.0.1; localhost/0:0:0:0:0:0:0:1] failed: Connection refused: connect",D:\VimoProjWS\GitWS\platform\bulkusersbatch\src\main\resources\csvFiles\csvsplitfiles\bulkuserdata_split_file_no_1.csv
1.98457E+11,Failed,ServerError,"I/O error on POST request for https://localhost:8083/newUsersRegistration?restReqFileName=bulkuserdata_split_file_no_1.csv:Connect to localhost:8083 [localhost/127.0.0.1; localhost/0:0:0:0:0:0:0:1] failed: Connection refused: connect; nested exception is org.apache.http.conn.HttpHostConnectException: Connect to localhost:8083 [localhost/127.0.0.1; localhost/0:0:0:0:0:0:0:1] failed: Connection refused: connect",D:\VimoProjWS\GitWS\platform\bulkusersbatch\src\main\resources\csvFiles\csvsplitfiles\bulkuserdata_split_file_no_1.csv
1.98457E+11,Failed,ServerError,"I/O error on POST request for https://localhost:8083/newUsersRegistration?restReqFileName=bulkuserdata_split_file_no_1.csv:Connect to localhost:8083 [localhost/127.0.0.1; localhost/0:0:0:0:0:0:0:1] failed: Connection refused: connect; nested exception is org.apache.http.conn.HttpHostConnectException: Connect to localhost:8083 [localhost/127.0.0.1; localhost/0:0:0:0:0:0:0:1] failed: Connection refused: connect",D:\VimoProjWS\GitWS\platform\bulkusersbatch\src\main\resources\csvFiles\csvsplitfiles\bulkuserdata_split_file_no_1.csv
1.98457E+11,Failed,ServerError,"I/O error on POST request for https://localhost:8083/newUsersRegistration?restReqFileName=bulkuserdata_split_file_no_1.csv:Connect to localhost:8083 [localhost/127.0.0.1; localhost/0:0:0:0:0:0:0:1] failed: Connection refused: connect; nested exception is org.apache.http.conn.HttpHostConnectException: Connect to localhost:8083 [localhost/127.0.0.1; localhost/0:0:0:0:0:0:0:1] failed: Connection refused: connect",D:\VimoProjWS\GitWS\platform\bulkusersbatch\src\main\resources\csvFiles\csvsplitfiles\bulkuserdata_split_file_no_1.csv
1.98457E+11,Failed,ServerError,"I/O error on POST request for https://localhost:8083/newUsersRegistration?restReqFileName=bulkuserdata_split_file_no_1.csv:Connect to localhost:8083 [localhost/127.0.0.1; localhost/0:0:0:0:0:0:0:1] failed: Connection refused: connect; nested exception is org.apache.http.conn.HttpHostConnectException: Connect to localhost:8083 [localhost/127.0.0.1; localhost/0:0:0:0:0:0:0:1] failed: Connection refused: connect",D:\VimoProjWS\GitWS\platform\bulkusersbatch\src\main\resources\csvFiles\csvsplitfiles\bulkuserdata_split_file_no_1.csv
1.98457E+11,Failed,ServerError,"I/O error on POST request for https://localhost:8083/newUsersRegistration?restReqFileName=bulkuserdata_split_file_no_1.csv:Connect to localhost:8083 [localhost/127.0.0.1; localhost/0:0:0:0:0:0:0:1] failed: Connection refused: connect; nested exception is org.apache.http.conn.HttpHostConnectException: Connect to localhost:8083 [localhost/127.0.0.1; localhost/0:0:0:0:0:0:0:1] failed: Connection refused: connect",D:\VimoProjWS\GitWS\platform\bulkusersbatch\src\main\resources\csvFiles\csvsplitfiles\bulkuserdata_split_file_no_1.csv
1.98457E+11,Failed,ServerError,"I/O error on POST request for https://localhost:8083/newUsersRegistration?restReqFileName=bulkuserdata_split_file_no_1.csv:Connect to localhost:8083 [localhost/127.0.0.1; localhost/0:0:0:0:0:0:0:1] failed: Connection refused: connect; nested exception is org.apache.http.conn.HttpHostConnectException: Connect to localhost:8083 [localhost/127.0.0.1; localhost/0:0:0:0:0:0:0:1] failed: Connection refused: connect",D:\VimoProjWS\GitWS\platform\bulkusersbatch\src\main\resources\csvFiles\csvsplitfiles\bulkuserdata_split_file_no_1.csv
1.98457E+11,Failed,ServerError,"I/O error on POST request for https://localhost:8083/newUsersRegistration?restReqFileName=bulkuserdata_split_file_no_1.csv:Connect to localhost:8083 [localhost/127.0.0.1; localhost/0:0:0:0:0:0:0:1] failed: Connection refused: connect; nested exception is org.apache.http.conn.HttpHostConnectException: Connect to localhost:8083 [localhost/127.0.0.1; localhost/0:0:0:0:0:0:0:1] failed: Connection refused: connect",D:\VimoProjWS\GitWS\platform\bulkusersbatch\src\main\resources\csvFiles\csvsplitfiles\bulkuserdata_split_file_no_1.csv
1.98457E+11,Failed,ServerError,"I/O error on POST request for https://localhost:8083/newUsersRegistration?restReqFileName=bulkuserdata_split_file_no_1.csv:Connect to localhost:8083 [localhost/127.0.0.1; localhost/0:0:0:0:0:0:0:1] failed: Connection refused: connect; nested exception is org.apache.http.conn.HttpHostConnectException: Connect to localhost:8083 [localhost/127.0.0.1; localhost/0:0:0:0:0:0:0:1] failed: Connection refused: connect",D:\VimoProjWS\GitWS\platform\bulkusersbatch\src\main\resources\csvFiles\csvsplitfiles\bulkuserdata_split_file_no_1.csv
1.98457E+11,Failed,ServerError,"I/O error on POST request for https://localhost:8083/newUsersRegistration?restReqFileName=bulkuserdata_split_file_no_1.csv:Connect to localhost:8083 [localhost/127.0.0.1; localhost/0:0:0:0:0:0:0:1] failed: Connection refused: connect; nested exception is org.apache.http.conn.HttpHostConnectException: Connect to localhost:8083 [localhost/127.0.0.1; localhost/0:0:0:0:0:0:0:1] failed: Connection refused: connect",D:\VimoProjWS\GitWS\platform\bulkusersbatch\src\main\resources\csvFiles\csvsplitfiles\bulkuserdata_split_file_no_1.csv
1.98457E+11,Failed,ServerError,"I/O error on POST request for https://localhost:8083/newUsersRegistration?restReqFileName=bulkuserdata_split_file_no_1.csv:Connect to localhost:8083 [localhost/127.0.0.1; localhost/0:0:0:0:0:0:0:1] failed: Connection refused: connect; nested exception is org.apache.http.conn.HttpHostConnectException: Connect to localhost:8083 [localhost/127.0.0.1; localhost/0:0:0:0:0:0:0:1] failed: Connection refused: connect",D:\VimoProjWS\GitWS\platform\bulkusersbatch\src\main\resources\csvFiles\csvsplitfiles\bulkuserdata_split_file_no_1.csv
1.98457E+11,Failed,ServerError,"I/O error on POST request for https://localhost:8083/newUsersRegistration?restReqFileName=bulkuserdata_split_file_no_1.csv:Connect to localhost:8083 [localhost/127.0.0.1; localhost/0:0:0:0:0:0:0:1] failed: Connection refused: connect; nested exception is org.apache.http.conn.HttpHostConnectException: Connect to localhost:8083 [localhost/127.0.0.1; localhost/0:0:0:0:0:0:0:1] failed: Connection refused: connect",D:\VimoProjWS\GitWS\platform\bulkusersbatch\src\main\resources\csvFiles\csvsplitfiles\bulkuserdata_split_file_no_1.csv
1.98457E+11,Failed,ServerError,"I/O error on POST request for https://localhost:8083/newUsersRegistration?restReqFileName=bulkuserdata_split_file_no_1.csv:Connect to localhost:8083 [localhost/127.0.0.1; localhost/0:0:0:0:0:0:0:1] failed: Connection refused: connect; nested exception is org.apache.http.conn.HttpHostConnectException: Connect to localhost:8083 [localhost/127.0.0.1; localhost/0:0:0:0:0:0:0:1] failed: Connection refused: connect",D:\VimoProjWS\GitWS\platform\bulkusersbatch\src\main\resources\csvFiles\csvsplitfiles\bulkuserdata_split_file_no_1.csv
1.98457E+11,Failed,ServerError,"I/O error on POST request for https://localhost:8083/newUsersRegistration?restReqFileName=bulkuserdata_split_file_no_1.csv:Connect to localhost:8083 [localhost/127.0.0.1; localhost/0:0:0:0:0:0:0:1] failed: Connection refused: connect; nested exception is org.apache.http.conn.HttpHostConnectException: Connect to localhost:8083 [localhost/127.0.0.1; localhost/0:0:0:0:0:0:0:1] failed: Connection refused: connect",D:\VimoProjWS\GitWS\platform\bulkusersbatch\src\main\resources\csvFiles\csvsplitfiles\bulkuserdata_split_file_no_1.csv
1.98457E+11,Failed,ServerError,"I/O error on POST request for https://localhost:8083/newUsersRegistration?restReqFileName=bulkuserdata_split_file_no_2.csv:Connect to localhost:8083 [localhost/127.0.0.1; localhost/0:0:0:0:0:0:0:1] failed: Connection refused: connect; nested exception is org.apache.http.conn.HttpHostConnectException: Connect to localhost:8083 [localhost/127.0.0.1; localhost/0:0:0:0:0:0:0:1] failed: Connection refused: connect",D:\VimoProjWS\GitWS\platform\bulkusersbatch\src\main\resources\csvFiles\csvsplitfiles\bulkuserdata_split_file_no_2.csv
1.98457E+11,Failed,ServerError,"I/O error on POST request for https://localhost:8083/newUsersRegistration?restReqFileName=bulkuserdata_split_file_no_2.csv:Connect to localhost:8083 [localhost/127.0.0.1; localhost/0:0:0:0:0:0:0:1] failed: Connection refused: connect; nested exception is org.apache.http.conn.HttpHostConnectException: Connect to localhost:8083 [localhost/127.0.0.1; localhost/0:0:0:0:0:0:0:1] failed: Connection refused: connect",D:\VimoProjWS\GitWS\platform\bulkusersbatch\src\main\resources\csvFiles\csvsplitfiles\bulkuserdata_split_file_no_2.csv
1.98457E+11,Failed,ServerError,"I/O error on POST request for https://localhost:8083/newUsersRegistration?restReqFileName=bulkuserdata_split_file_no_2.csv:Connect to localhost:8083 [localhost/127.0.0.1; localhost/0:0:0:0:0:0:0:1] failed: Connection refused: connect; nested exception is org.apache.http.conn.HttpHostConnectException: Connect to localhost:8083 [localhost/127.0.0.1; localhost/0:0:0:0:0:0:0:1] failed: Connection refused: connect",D:\VimoProjWS\GitWS\platform\bulkusersbatch\src\main\resources\csvFiles\csvsplitfiles\bulkuserdata_split_file_no_2.csv
1.98457E+11,Failed,ServerError,"I/O error on POST request for https://localhost:8083/newUsersRegistration?restReqFileName=bulkuserdata_split_file_no_2.csv:Connect to localhost:8083 [localhost/127.0.0.1; localhost/0:0:0:0:0:0:0:1] failed: Connection refused: connect; nested exception is org.apache.http.conn.HttpHostConnectException: Connect to localhost:8083 [localhost/127.0.0.1; localhost/0:0:0:0:0:0:0:1] failed: Connection refused: connect",D:\VimoProjWS\GitWS\platform\bulkusersbatch\src\main\resources\csvFiles\csvsplitfiles\bulkuserdata_split_file_no_2.csv
1.98457E+11,Failed,ServerError,"I/O error on POST request for https://localhost:8083/newUsersRegistration?restReqFileName=bulkuserdata_split_file_no_2.csv:Connect to localhost:8083 [localhost/127.0.0.1; localhost/0:0:0:0:0:0:0:1] failed: Connection refused: connect; nested exception is org.apache.http.conn.HttpHostConnectException: Connect to localhost:8083 [localhost/127.0.0.1; localhost/0:0:0:0:0:0:0:1] failed: Connection refused: connect",D:\VimoProjWS\GitWS\platform\bulkusersbatch\src\main\resources\csvFiles\csvsplitfiles\bulkuserdata_split_file_no_2.csv
1.98457E+11,Failed,ServerError,"I/O error on POST request for https://localhost:8083/newUsersRegistration?restReqFileName=bulkuserdata_split_file_no_2.csv:Connect to localhost:8083 [localhost/127.0.0.1; localhost/0:0:0:0:0:0:0:1] failed: Connection refused: connect; nested exception is org.apache.http.conn.HttpHostConnectException: Connect to localhost:8083 [localhost/127.0.0.1; localhost/0:0:0:0:0:0:0:1] failed: Connection refused: connect",D:\VimoProjWS\GitWS\platform\bulkusersbatch\src\main\resources\csvFiles\csvsplitfiles\bulkuserdata_split_file_no_2.csv
1.98457E+11,Failed,ServerError,"I/O error on POST request for https://localhost:8083/newUsersRegistration?restReqFileName=bulkuserdata_split_file_no_2.csv:Connect to localhost:8083 [localhost/127.0.0.1; localhost/0:0:0:0:0:0:0:1] failed: Connection refused: connect; nested exception is org.apache.http.conn.HttpHostConnectException: Connect to localhost:8083 [localhost/127.0.0.1; localhost/0:0:0:0:0:0:0:1] failed: Connection refused: connect",D:\VimoProjWS\GitWS\platform\bulkusersbatch\src\main\resources\csvFiles\csvsplitfiles\bulkuserdata_split_file_no_2.csv
1.98457E+11,Failed,ServerError,"I/O error on POST request for https://localhost:8083/newUsersRegistration?restReqFileName=bulkuserdata_split_file_no_2.csv:Connect to localhost:8083 [localhost/127.0.0.1; localhost/0:0:0:0:0:0:0:1] failed: Connection refused: connect; nested exception is org.apache.http.conn.HttpHostConnectException: Connect to localhost:8083 [localhost/127.0.0.1; localhost/0:0:0:0:0:0:0:1] failed: Connection refused: connect",D:\VimoProjWS\GitWS\platform\bulkusersbatch\src\main\resources\csvFiles\csvsplitfiles\bulkuserdata_split_file_no_2.csv
1.98457E+11,Failed,ServerError,"I/O error on POST request for https://localhost:8083/newUsersRegistration?restReqFileName=bulkuserdata_split_file_no_2.csv:Connect to localhost:8083 [localhost/127.0.0.1; localhost/0:0:0:0:0:0:0:1] failed: Connection refused: connect; nested exception is org.apache.http.conn.HttpHostConnectException: Connect to localhost:8083 [localhost/127.0.0.1; localhost/0:0:0:0:0:0:0:1] failed: Connection refused: connect",D:\VimoProjWS\GitWS\platform\bulkusersbatch\src\main\resources\csvFiles\csvsplitfiles\bulkuserdata_split_file_no_2.csv
1.98457E+11,Failed,ServerError,"I/O error on POST request for https://localhost:8083/newUsersRegistration?restReqFileName=bulkuserdata_split_file_no_2.csv:Connect to localhost:8083 [localhost/127.0.0.1; localhost/0:0:0:0:0:0:0:1] failed: Connection refused: connect; nested exception is org.apache.http.conn.HttpHostConnectException: Connect to localhost:8083 [localhost/127.0.0.1; localhost/0:0:0:0:0:0:0:1] failed: Connection refused: connect",D:\VimoProjWS\GitWS\platform\bulkusersbatch\src\main\resources\csvFiles\csvsplitfiles\bulkuserdata_split_file_no_2.csv
1.98457E+11,Failed,ServerError,"I/O error on POST request for https://localhost:8083/newUsersRegistration?restReqFileName=bulkuserdata_split_file_no_2.csv:Connect to localhost:8083 [localhost/127.0.0.1; localhost/0:0:0:0:0:0:0:1] failed: Connection refused: connect; nested exception is org.apache.http.conn.HttpHostConnectException: Connect to localhost:8083 [localhost/127.0.0.1; localhost/0:0:0:0:0:0:0:1] failed: Connection refused: connect",D:\VimoProjWS\GitWS\platform\bulkusersbatch\src\main\resources\csvFiles\csvsplitfiles\bulkuserdata_split_file_no_2.csv
1.98457E+11,Failed,ServerError,"I/O error on POST request for https://localhost:8083/newUsersRegistration?restReqFileName=bulkuserdata_split_file_no_2.csv:Connect to localhost:8083 [localhost/127.0.0.1; localhost/0:0:0:0:0:0:0:1] failed: Connection refused: connect; nested exception is org.apache.http.conn.HttpHostConnectException: Connect to localhost:8083 [localhost/127.0.0.1; localhost/0:0:0:0:0:0:0:1] failed: Connection refused: connect",D:\VimoProjWS\GitWS\platform\bulkusersbatch\src\main\resources\csvFiles\csvsplitfiles\bulkuserdata_split_file_no_2.csv
1.98457E+11,Failed,ServerError,"I/O error on POST request for https://localhost:8083/newUsersRegistration?restReqFileName=bulkuserdata_split_file_no_2.csv:Connect to localhost:8083 [localhost/127.0.0.1; localhost/0:0:0:0:0:0:0:1] failed: Connection refused: connect; nested exception is org.apache.http.conn.HttpHostConnectException: Connect to localhost:8083 [localhost/127.0.0.1; localhost/0:0:0:0:0:0:0:1] failed: Connection refused: connect",D:\VimoProjWS\GitWS\platform\bulkusersbatch\src\main\resources\csvFiles\csvsplitfiles\bulkuserdata_split_file_no_2.csv
1.98457E+11,Failed,ServerError,"I/O error on POST request for https://localhost:8083/newUsersRegistration?restReqFileName=bulkuserdata_split_file_no_2.csv:Connect to localhost:8083 [localhost/127.0.0.1; localhost/0:0:0:0:0:0:0:1] failed: Connection refused: connect; nested exception is org.apache.http.conn.HttpHostConnectException: Connect to localhost:8083 [localhost/127.0.0.1; localhost/0:0:0:0:0:0:0:1] failed: Connection refused: connect",D:\VimoProjWS\GitWS\platform\bulkusersbatch\src\main\resources\csvFiles\csvsplitfiles\bulkuserdata_split_file_no_2.csv
1.98457E+11,Failed,ServerError,"I/O error on POST request for https://localhost:8083/newUsersRegistration?restReqFileName=bulkuserdata_split_file_no_2.csv:Connect to localhost:8083 [localhost/127.0.0.1; localhost/0:0:0:0:0:0:0:1] failed: Connection refused: connect; nested exception is org.apache.http.conn.HttpHostConnectException: Connect to localhost:8083 [localhost/127.0.0.1; localhost/0:0:0:0:0:0:0:1] failed: Connection refused: connect",D:\VimoProjWS\GitWS\platform\bulkusersbatch\src\main\resources\csvFiles\csvsplitfiles\bulkuserdata_split_file_no_2.csv
1.98457E+11,Failed,ServerError,"I/O error on POST request for https://localhost:8083/newUsersRegistration?restReqFileName=bulkuserdata_split_file_no_2.csv:Connect to localhost:8083 [localhost/127.0.0.1; localhost/0:0:0:0:0:0:0:1] failed: Connection refused: connect; nested exception is org.apache.http.conn.HttpHostConnectException: Connect to localhost:8083 [localhost/127.0.0.1; localhost/0:0:0:0:0:0:0:1] failed: Connection refused: connect",D:\VimoProjWS\GitWS\platform\bulkusersbatch\src\main\resources\csvFiles\csvsplitfiles\bulkuserdata_split_file_no_2.csv
1.98457E+11,Failed,ServerError,"I/O error on POST request for https://localhost:8083/newUsersRegistration?restReqFileName=bulkuserdata_split_file_no_2.csv:Connect to localhost:8083 [localhost/127.0.0.1; localhost/0:0:0:0:0:0:0:1] failed: Connection refused: connect; nested exception is org.apache.http.conn.HttpHostConnectException: Connect to localhost:8083 [localhost/127.0.0.1; localhost/0:0:0:0:0:0:0:1] failed: Connection refused: connect",D:\VimoProjWS\GitWS\platform\bulkusersbatch\src\main\resources\csvFiles\csvsplitfiles\bulkuserdata_split_file_no_2.csv
1.98457E+11,Failed,ServerError,"I/O error on POST request for https://localhost:8083/newUsersRegistration?restReqFileName=bulkuserdata_split_file_no_2.csv:Connect to localhost:8083 [localhost/127.0.0.1; localhost/0:0:0:0:0:0:0:1] failed: Connection refused: connect; nested exception is org.apache.http.conn.HttpHostConnectException: Connect to localhost:8083 [localhost/127.0.0.1; localhost/0:0:0:0:0:0:0:1] failed: Connection refused: connect",D:\VimoProjWS\GitWS\platform\bulkusersbatch\src\main\resources\csvFiles\csvsplitfiles\bulkuserdata_split_file_no_2.csv
1.98457E+11,Failed,ServerError,"I/O error on POST request for https://localhost:8083/newUsersRegistration?restReqFileName=bulkuserdata_split_file_no_2.csv:Connect to localhost:8083 [localhost/127.0.0.1; localhost/0:0:0:0:0:0:0:1] failed: Connection refused: connect; nested exception is org.apache.http.conn.HttpHostConnectException: Connect to localhost:8083 [localhost/127.0.0.1; localhost/0:0:0:0:0:0:0:1] failed: Connection refused: connect",D:\VimoProjWS\GitWS\platform\bulkusersbatch\src\main\resources\csvFiles\csvsplitfiles\bulkuserdata_split_file_no_2.csv
1.98457E+11,Failed,ServerError,"I/O error on POST request for https://localhost:8083/newUsersRegistration?restReqFileName=bulkuserdata_split_file_no_2.csv:Connect to localhost:8083 [localhost/127.0.0.1; localhost/0:0:0:0:0:0:0:1] failed: Connection refused: connect; nested exception is org.apache.http.conn.HttpHostConnectException: Connect to localhost:8083 [localhost/127.0.0.1; localhost/0:0:0:0:0:0:0:1] failed: Connection refused: connect",D:\VimoProjWS\GitWS\platform\bulkusersbatch\src\main\resources\csvFiles\csvsplitfiles\bulkuserdata_split_file_no_2.csv
1.98457E+12,Failed,ServerError,"I/O error on POST request for https://localhost:8083/newUsersRegistration?restReqFileName=bulkuserdata_split_file_no_2.csv:Connect to localhost:8083 [localhost/127.0.0.1; localhost/0:0:0:0:0:0:0:1] failed: Connection refused: connect; nested exception is org.apache.http.conn.HttpHostConnectException: Connect to localhost:8083 [localhost/127.0.0.1; localhost/0:0:0:0:0:0:0:1] failed: Connection refused: connect",D:\VimoProjWS\GitWS\platform\bulkusersbatch\src\main\resources\csvFiles\csvsplitfiles\bulkuserdata_split_file_no_2.csv
1.98457E+12,Failed,ServerError,"I/O error on POST request for https://localhost:8083/newUsersRegistration?restReqFileName=bulkuserdata_split_file_no_2.csv:Connect to localhost:8083 [localhost/127.0.0.1; localhost/0:0:0:0:0:0:0:1] failed: Connection refused: connect; nested exception is org.apache.http.conn.HttpHostConnectException: Connect to localhost:8083 [localhost/127.0.0.1; localhost/0:0:0:0:0:0:0:1] failed: Connection refused: connect",D:\VimoProjWS\GitWS\platform\bulkusersbatch\src\main\resources\csvFiles\csvsplitfiles\bulkuserdata_split_file_no_2.csv
